# grid size (sx1,sx2,sx3)
128 128 128
# sampling size, smoothing & nyquist (dx1,dx2,dx3,beta,nq)
5.000000e-02 5.000000e-02 5.000000e-02 0.2 0
# origin position & rotation
0 0 0
# observation depth (displacements and stress)
0 0.5
# output directory
../tmp
# elastic parameters and gamma = (1-nu) rho g / mu = 8.33e-7 /m = 8.33e-4 /km
1 1 8.33e-4
# integration time (t1)
1.999470e+00 -1 1
# number of observation planes
0
# number of observation points
13
# i NAME x1 x2 x3
  1 G001  0.000000  1.000000  0
  2 G002  0.000000  2.000000  0
  3 G003  0.000000  3.000000  0
  4 G004  0.500000  1.000000  0
  5 G005  0.500000  2.000000  0
  6 G006  0.500000  3.000000  0
  7 G007  1.000000  1.000000  0
  8 G008  1.000000  2.000000  0
  9 G009  1.000000  3.000000  0
  10 G010  1.500000  0.000000  0
  11 G011  1.500000  1.000000  0
  12 G012  1.500000  2.000000  0
  13 G013  1.500000  3.000000  0
# number of stress observation segments
0
# number of prestress interfaces
0
# number of linear viscous interfaces
1
# no depth gammadot0 cohesion
1 2 1.000000e+00 0
# number of linear ductile zones
0
# number of powerlaw viscous interfaces
0
# number of friction interfaces
0
# number of interseismic loading strike-slip and opening
0
0
# number of coseismic events
1
# number of shear dislocations (strike-slip and dip-slip faults)
1
# index slip x1 x2 x3 length width strike dip rake
1 1.000000e+00 -5.000000e-01 0.000000e+00 0.000000e+00 1.000000e+00 1.000000e+00 0.000000e+00 9.000000e+01 0.000000e+00
# number of tensile cracks
0
# number of dilatation sources
0
# number of surface loads
0
